[
  {
    "file": "../src/main.cpp",
    "directory": "/home/kirill/Desktop/1. Focus on/9. gn & ninja/examples/1. Hello gn/out",
    "command": "g++ -MMD -MF  obj/src/hello.main.o.d    -fPIC -pthread  -c ../src/main.cpp -o  obj/src/hello.main.o"
  },
  {
    "file": "../src/test.cpp",
    "directory": "/home/kirill/Desktop/1. Focus on/9. gn & ninja/examples/1. Hello gn/out",
    "command": "g++ -MMD -MF  obj/src/libtest.test.o.d    -fPIC -pthread  -c ../src/test.cpp -o  obj/src/libtest.test.o"
  }
]
